{"music1":"music/DOS88/DOS-88-City-Stomper.mp3",
"music2":"music/DOS88/Billy's-Sacrifice.mp3",
"music3":"music/DOS88/Checking-Manifest.mp3",
"music4":"music/DOS88/Crash-Landing.mp3",
"music5":"music/DOS88/DOS-88-Automatav2.mp3",
"music6":"music/DOS88/DOS-88-Far away.mp3",
"music7":"music/DOS88/Parabola.mp3",
"music8":"music/DOS88/Race-to-Mars.mp3",
"music9":"music/DOS88/Smooth-Sailing.mp3"}